<svg xmlns="http://www.w3.org/2000/svg" width="24" height="24" viewBox="0 0 24 24" fill="none" stroke="currentColor" stroke-width="2" stroke-linecap="round" stroke-linejoin="round" class="feather feather-lock">
<rect x="5" y="11" width="14" height="11" rx="2" ry="2"></rect>
<circle cx="12" cy="18" r=".5"></circle>
<path d="M7 11V7a5 5 0 0 1 10 0v4"></path></svg>
